^D:\PROJECTS\SYTPRINTERTEST_RM\TXPRINTERTEST\STDAFX.CPP
D:\PROJECTS\SYTPRINTERTEST_RM\TXPRINTERTEST\DEBUG\打印测试程序.PCH
D:\PROJECTS\SYTPRINTERTEST_RM\TXPRINTERTEST\DEBUG\VC140.PDB
D:\PROJECTS\SYTPRINTERTEST_RM\TXPRINTERTEST\DEBUG\VC140.IDB
D:\PROJECTS\SYTPRINTERTEST_RM\TXPRINTERTEST\DEBUG\STDAFX.OBJ
^D:\PROJECTS\SYTPRINTERTEST_RM\TXPRINTERTEST\DENDLG.CPP|D:\PROJECTS\SYTPRINTERTEST_RM\TXPRINTERTEST\SENDHEXDATA.CPP|D:\PROJECTS\SYTPRINTERTEST_RM\TXPRINTERTEST\TXPRINTERTEST.CPP|D:\PROJECTS\SYTPRINTERTEST_RM\TXPRINTERTEST\TXPRINTERTESTDLG.CPP
D:\PROJECTS\SYTPRINTERTEST_RM\TXPRINTERTEST\DEBUG\VC140.PDB
D:\PROJECTS\SYTPRINTERTEST_RM\TXPRINTERTEST\DEBUG\VC140.IDB
D:\PROJECTS\SYTPRINTERTEST_RM\TXPRINTERTEST\DEBUG\DENDLG.OBJ
D:\PROJECTS\SYTPRINTERTEST_RM\TXPRINTERTEST\DEBUG\SENDHEXDATA.OBJ
D:\PROJECTS\SYTPRINTERTEST_RM\TXPRINTERTEST\DEBUG\TXPRINTERTEST.OBJ
D:\PROJECTS\SYTPRINTERTEST_RM\TXPRINTERTEST\DEBUG\TXPRINTERTESTDLG.OBJ
^D:\PROJECTS\SYTPRINTERTEST_RM\TXPRINTERTEST\DENDLG.CPP
D:\PROJECTS\SYTPRINTERTEST_RM\TXPRINTERTEST\DEBUG\VC140.PDB
^D:\PROJECTS\SYTPRINTERTEST_RM\TXPRINTERTEST\SENDHEXDATA.CPP
D:\PROJECTS\SYTPRINTERTEST_RM\TXPRINTERTEST\DEBUG\VC140.PDB
^D:\PROJECTS\SYTPRINTERTEST_RM\TXPRINTERTEST\TXPRINTERTEST.CPP
D:\PROJECTS\SYTPRINTERTEST_RM\TXPRINTERTEST\DEBUG\VC140.PDB
^D:\PROJECTS\SYTPRINTERTEST_RM\TXPRINTERTEST\TXPRINTERTESTDLG.CPP
D:\PROJECTS\SYTPRINTERTEST_RM\TXPRINTERTEST\DEBUG\VC140.PDB
