^D:\PROJECTS\PRINTERTEST\TXPRINTERTEST\STDAFX.CPP
/c /Zi /nologo /W3 /WX- /sdl /O2 /Oi /Oy- /GL /D WIN32 /D _WINDOWS /D NDEBUG /D _USING_V110_SDK71_ /D _UNICODE /D UNICODE /Gm- /EHsc /MT /GS /Gy /fp:precise /Zc:wchar_t /Zc:forScope /Zc:inline /Yc"stdafx.h" /Fp"RELEASE\打印测试程序.PCH" /Fo"RELEASE\\" /Fd"RELEASE\VC140.PDB" /Gd /TP /analyze- D:\PROJECTS\PRINTERTEST\TXPRINTERTEST\STDAFX.CPP
^D:\PROJECTS\PRINTERTEST\TXPRINTERTEST\DENDLG.CPP
/c /Zi /nologo /W3 /WX- /sdl /O2 /Oi /Oy- /GL /D WIN32 /D _WINDOWS /D NDEBUG /D _USING_V110_SDK71_ /D _UNICODE /D UNICODE /Gm- /EHsc /MT /GS /Gy /fp:precise /Zc:wchar_t /Zc:forScope /Zc:inline /Yu"stdafx.h" /Fp"RELEASE\打印测试程序.PCH" /Fo"RELEASE\\" /Fd"RELEASE\VC140.PDB" /Gd /TP /analyze- D:\PROJECTS\PRINTERTEST\TXPRINTERTEST\DENDLG.CPP
^D:\PROJECTS\PRINTERTEST\TXPRINTERTEST\SENDHEXDATA.CPP
/c /Zi /nologo /W3 /WX- /sdl /O2 /Oi /Oy- /GL /D WIN32 /D _WINDOWS /D NDEBUG /D _USING_V110_SDK71_ /D _UNICODE /D UNICODE /Gm- /EHsc /MT /GS /Gy /fp:precise /Zc:wchar_t /Zc:forScope /Zc:inline /Yu"stdafx.h" /Fp"RELEASE\打印测试程序.PCH" /Fo"RELEASE\\" /Fd"RELEASE\VC140.PDB" /Gd /TP /analyze- D:\PROJECTS\PRINTERTEST\TXPRINTERTEST\SENDHEXDATA.CPP
^D:\PROJECTS\PRINTERTEST\TXPRINTERTEST\TXPRINTERTEST.CPP
/c /Zi /nologo /W3 /WX- /sdl /O2 /Oi /Oy- /GL /D WIN32 /D _WINDOWS /D NDEBUG /D _USING_V110_SDK71_ /D _UNICODE /D UNICODE /Gm- /EHsc /MT /GS /Gy /fp:precise /Zc:wchar_t /Zc:forScope /Zc:inline /Yu"stdafx.h" /Fp"RELEASE\打印测试程序.PCH" /Fo"RELEASE\\" /Fd"RELEASE\VC140.PDB" /Gd /TP /analyze- D:\PROJECTS\PRINTERTEST\TXPRINTERTEST\TXPRINTERTEST.CPP
^D:\PROJECTS\PRINTERTEST\TXPRINTERTEST\TXPRINTERTESTDLG.CPP
/c /Zi /nologo /W3 /WX- /sdl /O2 /Oi /Oy- /GL /D WIN32 /D _WINDOWS /D NDEBUG /D _USING_V110_SDK71_ /D _UNICODE /D UNICODE /Gm- /EHsc /MT /GS /Gy /fp:precise /Zc:wchar_t /Zc:forScope /Zc:inline /Yu"stdafx.h" /Fp"RELEASE\打印测试程序.PCH" /Fo"RELEASE\\" /Fd"RELEASE\VC140.PDB" /Gd /TP /analyze- D:\PROJECTS\PRINTERTEST\TXPRINTERTEST\TXPRINTERTESTDLG.CPP
^D:\PROJECTS\SYTPRINTERTEST_RM\TXPRINTERTEST\STDAFX.CPP
/c /Zi /nologo /W3 /WX- /sdl /O2 /Oi /Oy- /GL /D WIN32 /D _WINDOWS /D NDEBUG /D _USING_V110_SDK71_ /D _UNICODE /D UNICODE /Gm- /EHsc /MT /GS /Gy /fp:precise /Zc:wchar_t /Zc:forScope /Zc:inline /Yc"stdafx.h" /Fp"RELEASE\打印测试程序.PCH" /Fo"RELEASE\\" /Fd"RELEASE\VC140.PDB" /Gd /TP /analyze- D:\PROJECTS\SYTPRINTERTEST_RM\TXPRINTERTEST\STDAFX.CPP
^D:\PROJECTS\SYTPRINTERTEST_RM\TXPRINTERTEST\DENDLG.CPP
/c /Zi /nologo /W3 /WX- /sdl /O2 /Oi /Oy- /GL /D WIN32 /D _WINDOWS /D NDEBUG /D _USING_V110_SDK71_ /D _UNICODE /D UNICODE /Gm- /EHsc /MT /GS /Gy /fp:precise /Zc:wchar_t /Zc:forScope /Zc:inline /Yu"stdafx.h" /Fp"RELEASE\打印测试程序.PCH" /Fo"RELEASE\\" /Fd"RELEASE\VC140.PDB" /Gd /TP /analyze- D:\PROJECTS\SYTPRINTERTEST_RM\TXPRINTERTEST\DENDLG.CPP
^D:\PROJECTS\SYTPRINTERTEST_RM\TXPRINTERTEST\SENDHEXDATA.CPP
/c /Zi /nologo /W3 /WX- /sdl /O2 /Oi /Oy- /GL /D WIN32 /D _WINDOWS /D NDEBUG /D _USING_V110_SDK71_ /D _UNICODE /D UNICODE /Gm- /EHsc /MT /GS /Gy /fp:precise /Zc:wchar_t /Zc:forScope /Zc:inline /Yu"stdafx.h" /Fp"RELEASE\打印测试程序.PCH" /Fo"RELEASE\\" /Fd"RELEASE\VC140.PDB" /Gd /TP /analyze- D:\PROJECTS\SYTPRINTERTEST_RM\TXPRINTERTEST\SENDHEXDATA.CPP
^D:\PROJECTS\SYTPRINTERTEST_RM\TXPRINTERTEST\TXPRINTERTEST.CPP
/c /Zi /nologo /W3 /WX- /sdl /O2 /Oi /Oy- /GL /D WIN32 /D _WINDOWS /D NDEBUG /D _USING_V110_SDK71_ /D _UNICODE /D UNICODE /Gm- /EHsc /MT /GS /Gy /fp:precise /Zc:wchar_t /Zc:forScope /Zc:inline /Yu"stdafx.h" /Fp"RELEASE\打印测试程序.PCH" /Fo"RELEASE\\" /Fd"RELEASE\VC140.PDB" /Gd /TP /analyze- D:\PROJECTS\SYTPRINTERTEST_RM\TXPRINTERTEST\TXPRINTERTEST.CPP
^D:\PROJECTS\SYTPRINTERTEST_RM\TXPRINTERTEST\TXPRINTERTESTDLG.CPP
/c /Zi /nologo /W3 /WX- /sdl /O2 /Oi /Oy- /GL /D WIN32 /D _WINDOWS /D NDEBUG /D _USING_V110_SDK71_ /D _UNICODE /D UNICODE /Gm- /EHsc /MT /GS /Gy /fp:precise /Zc:wchar_t /Zc:forScope /Zc:inline /Yu"stdafx.h" /Fp"RELEASE\打印测试程序.PCH" /Fo"RELEASE\\" /Fd"RELEASE\VC140.PDB" /Gd /TP /analyze- D:\PROJECTS\SYTPRINTERTEST_RM\TXPRINTERTEST\TXPRINTERTESTDLG.CPP
^D:\PROJECTS\TPRINTERTEST_RM\TXPRINTERTEST\STDAFX.CPP
/c /Zi /nologo /W3 /WX- /sdl /O2 /Oi /Oy- /GL /D WIN32 /D _WINDOWS /D NDEBUG /D _USING_V110_SDK71_ /D _UNICODE /D UNICODE /Gm- /EHsc /MT /GS /Gy /fp:precise /Zc:wchar_t /Zc:forScope /Zc:inline /Yc"stdafx.h" /Fp"RELEASE\打印测试程序.PCH" /Fo"RELEASE\\" /Fd"RELEASE\VC140.PDB" /Gd /TP /analyze- D:\PROJECTS\TPRINTERTEST_RM\TXPRINTERTEST\STDAFX.CPP
^D:\PROJECTS\TPRINTERTEST_RM\TXPRINTERTEST\DENDLG.CPP
/c /Zi /nologo /W3 /WX- /sdl /O2 /Oi /Oy- /GL /D WIN32 /D _WINDOWS /D NDEBUG /D _USING_V110_SDK71_ /D _UNICODE /D UNICODE /Gm- /EHsc /MT /GS /Gy /fp:precise /Zc:wchar_t /Zc:forScope /Zc:inline /Yu"stdafx.h" /Fp"RELEASE\打印测试程序.PCH" /Fo"RELEASE\\" /Fd"RELEASE\VC140.PDB" /Gd /TP /analyze- D:\PROJECTS\TPRINTERTEST_RM\TXPRINTERTEST\DENDLG.CPP
^D:\PROJECTS\TPRINTERTEST_RM\TXPRINTERTEST\SENDHEXDATA.CPP
/c /Zi /nologo /W3 /WX- /sdl /O2 /Oi /Oy- /GL /D WIN32 /D _WINDOWS /D NDEBUG /D _USING_V110_SDK71_ /D _UNICODE /D UNICODE /Gm- /EHsc /MT /GS /Gy /fp:precise /Zc:wchar_t /Zc:forScope /Zc:inline /Yu"stdafx.h" /Fp"RELEASE\打印测试程序.PCH" /Fo"RELEASE\\" /Fd"RELEASE\VC140.PDB" /Gd /TP /analyze- D:\PROJECTS\TPRINTERTEST_RM\TXPRINTERTEST\SENDHEXDATA.CPP
^D:\PROJECTS\TPRINTERTEST_RM\TXPRINTERTEST\TXPRINTERTEST.CPP
/c /Zi /nologo /W3 /WX- /sdl /O2 /Oi /Oy- /GL /D WIN32 /D _WINDOWS /D NDEBUG /D _USING_V110_SDK71_ /D _UNICODE /D UNICODE /Gm- /EHsc /MT /GS /Gy /fp:precise /Zc:wchar_t /Zc:forScope /Zc:inline /Yu"stdafx.h" /Fp"RELEASE\打印测试程序.PCH" /Fo"RELEASE\\" /Fd"RELEASE\VC140.PDB" /Gd /TP /analyze- D:\PROJECTS\TPRINTERTEST_RM\TXPRINTERTEST\TXPRINTERTEST.CPP
^D:\PROJECTS\TPRINTERTEST_RM\TXPRINTERTEST\TXPRINTERTESTDLG.CPP
/c /Zi /nologo /W3 /WX- /sdl /O2 /Oi /Oy- /GL /D WIN32 /D _WINDOWS /D NDEBUG /D _USING_V110_SDK71_ /D _UNICODE /D UNICODE /Gm- /EHsc /MT /GS /Gy /fp:precise /Zc:wchar_t /Zc:forScope /Zc:inline /Yu"stdafx.h" /Fp"RELEASE\打印测试程序.PCH" /Fo"RELEASE\\" /Fd"RELEASE\VC140.PDB" /Gd /TP /analyze- D:\PROJECTS\TPRINTERTEST_RM\TXPRINTERTEST\TXPRINTERTESTDLG.CPP
^D:\PROJECTS\PRINTERTEST_RM\TXPRINTERTEST\STDAFX.CPP
/c /Zi /nologo /W3 /WX- /sdl /O2 /Oi /Oy- /GL /D WIN32 /D _WINDOWS /D NDEBUG /D _USING_V110_SDK71_ /D _UNICODE /D UNICODE /Gm- /EHsc /MT /GS /Gy /fp:precise /Zc:wchar_t /Zc:forScope /Zc:inline /Yc"stdafx.h" /Fp"RELEASE\打印测试程序.PCH" /Fo"RELEASE\\" /Fd"RELEASE\VC140.PDB" /Gd /TP /analyze- D:\PROJECTS\PRINTERTEST_RM\TXPRINTERTEST\STDAFX.CPP
^D:\PROJECTS\PRINTERTEST_RM\TXPRINTERTEST\DENDLG.CPP
/c /Zi /nologo /W3 /WX- /sdl /O2 /Oi /Oy- /GL /D WIN32 /D _WINDOWS /D NDEBUG /D _USING_V110_SDK71_ /D _UNICODE /D UNICODE /Gm- /EHsc /MT /GS /Gy /fp:precise /Zc:wchar_t /Zc:forScope /Zc:inline /Yu"stdafx.h" /Fp"RELEASE\打印测试程序.PCH" /Fo"RELEASE\\" /Fd"RELEASE\VC140.PDB" /Gd /TP /analyze- D:\PROJECTS\PRINTERTEST_RM\TXPRINTERTEST\DENDLG.CPP
^D:\PROJECTS\PRINTERTEST_RM\TXPRINTERTEST\SENDHEXDATA.CPP
/c /Zi /nologo /W3 /WX- /sdl /O2 /Oi /Oy- /GL /D WIN32 /D _WINDOWS /D NDEBUG /D _USING_V110_SDK71_ /D _UNICODE /D UNICODE /Gm- /EHsc /MT /GS /Gy /fp:precise /Zc:wchar_t /Zc:forScope /Zc:inline /Yu"stdafx.h" /Fp"RELEASE\打印测试程序.PCH" /Fo"RELEASE\\" /Fd"RELEASE\VC140.PDB" /Gd /TP /analyze- D:\PROJECTS\PRINTERTEST_RM\TXPRINTERTEST\SENDHEXDATA.CPP
^D:\PROJECTS\PRINTERTEST_RM\TXPRINTERTEST\TXPRINTERTEST.CPP
/c /Zi /nologo /W3 /WX- /sdl /O2 /Oi /Oy- /GL /D WIN32 /D _WINDOWS /D NDEBUG /D _USING_V110_SDK71_ /D _UNICODE /D UNICODE /Gm- /EHsc /MT /GS /Gy /fp:precise /Zc:wchar_t /Zc:forScope /Zc:inline /Yu"stdafx.h" /Fp"RELEASE\打印测试程序.PCH" /Fo"RELEASE\\" /Fd"RELEASE\VC140.PDB" /Gd /TP /analyze- D:\PROJECTS\PRINTERTEST_RM\TXPRINTERTEST\TXPRINTERTEST.CPP
^D:\PROJECTS\PRINTERTEST_RM\TXPRINTERTEST\TXPRINTERTESTDLG.CPP
/c /Zi /nologo /W3 /WX- /sdl /O2 /Oi /Oy- /GL /D WIN32 /D _WINDOWS /D NDEBUG /D _USING_V110_SDK71_ /D _UNICODE /D UNICODE /Gm- /EHsc /MT /GS /Gy /fp:precise /Zc:wchar_t /Zc:forScope /Zc:inline /Yu"stdafx.h" /Fp"RELEASE\打印测试程序.PCH" /Fo"RELEASE\\" /Fd"RELEASE\VC140.PDB" /Gd /TP /analyze- D:\PROJECTS\PRINTERTEST_RM\TXPRINTERTEST\TXPRINTERTESTDLG.CPP
