^D:\PROJECTS\PRINTERTEST\TXPRINTERTEST\RELEASE\DENDLG.OBJ|D:\PROJECTS\PRINTERTEST\TXPRINTERTEST\RELEASE\SENDHEXDATA.OBJ|D:\PROJECTS\PRINTERTEST\TXPRINTERTEST\RELEASE\STDAFX.OBJ|D:\PROJECTS\PRINTERTEST\TXPRINTERTEST\RELEASE\TXPRINTERTEST.OBJ|D:\PROJECTS\PRINTERTEST\TXPRINTERTEST\RELEASE\TXPRINTERTEST.RES|D:\PROJECTS\PRINTERTEST\TXPRINTERTEST\RELEASE\TXPRINTERTESTDLG.OBJ
D:\PROJECTS\PRINTERTEST\RELEASE\打印测试程序.EXE
D:\PROJECTS\PRINTERTEST\RELEASE\打印测试程序.IPDB
D:\PROJECTS\PRINTERTEST\RELEASE\打印测试程序.IOBJ
D:\PROJECTS\PRINTERTEST\RELEASE\打印测试程序.PDB
^D:\PROJECTS\SYTPRINTERTEST_RM\TXPRINTERTEST\RELEASE\DENDLG.OBJ|D:\PROJECTS\SYTPRINTERTEST_RM\TXPRINTERTEST\RELEASE\SENDHEXDATA.OBJ|D:\PROJECTS\SYTPRINTERTEST_RM\TXPRINTERTEST\RELEASE\STDAFX.OBJ|D:\PROJECTS\SYTPRINTERTEST_RM\TXPRINTERTEST\RELEASE\TXPRINTERTEST.OBJ|D:\PROJECTS\SYTPRINTERTEST_RM\TXPRINTERTEST\RELEASE\TXPRINTERTEST.RES|D:\PROJECTS\SYTPRINTERTEST_RM\TXPRINTERTEST\RELEASE\TXPRINTERTESTDLG.OBJ
D:\PROJECTS\SYTPRINTERTEST_RM\RELEASE\打印测试程序.EXE
D:\PROJECTS\SYTPRINTERTEST_RM\RELEASE\打印测试程序.IPDB
D:\PROJECTS\SYTPRINTERTEST_RM\RELEASE\打印测试程序.IOBJ
D:\PROJECTS\SYTPRINTERTEST_RM\RELEASE\打印测试程序.PDB
^D:\PROJECTS\TPRINTERTEST_RM\TXPRINTERTEST\RELEASE\DENDLG.OBJ|D:\PROJECTS\TPRINTERTEST_RM\TXPRINTERTEST\RELEASE\SENDHEXDATA.OBJ|D:\PROJECTS\TPRINTERTEST_RM\TXPRINTERTEST\RELEASE\STDAFX.OBJ|D:\PROJECTS\TPRINTERTEST_RM\TXPRINTERTEST\RELEASE\TXPRINTERTEST.OBJ|D:\PROJECTS\TPRINTERTEST_RM\TXPRINTERTEST\RELEASE\TXPRINTERTEST.RES|D:\PROJECTS\TPRINTERTEST_RM\TXPRINTERTEST\RELEASE\TXPRINTERTESTDLG.OBJ
D:\PROJECTS\TPRINTERTEST_RM\RELEASE\打印测试程序.EXE
D:\PROJECTS\TPRINTERTEST_RM\RELEASE\打印测试程序.IPDB
D:\PROJECTS\TPRINTERTEST_RM\RELEASE\打印测试程序.IOBJ
D:\PROJECTS\TPRINTERTEST_RM\RELEASE\打印测试程序.PDB
^D:\PROJECTS\PRINTERTEST_RM\TXPRINTERTEST\RELEASE\DENDLG.OBJ|D:\PROJECTS\PRINTERTEST_RM\TXPRINTERTEST\RELEASE\SENDHEXDATA.OBJ|D:\PROJECTS\PRINTERTEST_RM\TXPRINTERTEST\RELEASE\STDAFX.OBJ|D:\PROJECTS\PRINTERTEST_RM\TXPRINTERTEST\RELEASE\TXPRINTERTEST.OBJ|D:\PROJECTS\PRINTERTEST_RM\TXPRINTERTEST\RELEASE\TXPRINTERTEST.RES|D:\PROJECTS\PRINTERTEST_RM\TXPRINTERTEST\RELEASE\TXPRINTERTESTDLG.OBJ
D:\PROJECTS\PRINTERTEST_RM\RELEASE\打印测试程序.EXE
D:\PROJECTS\PRINTERTEST_RM\RELEASE\打印测试程序.IPDB
D:\PROJECTS\PRINTERTEST_RM\RELEASE\打印测试程序.IOBJ
D:\PROJECTS\PRINTERTEST_RM\RELEASE\打印测试程序.PDB
