^D:\PROJECTS\PRINTERTEST\TXPRINTERTEST\TXPRINTERTEST.RC
/D NDEBUG /D _USING_V110_SDK71_ /D _UNICODE /D UNICODE /l"0x0804" /IRELEASE\ /nologo /fo"RELEASE\TXPRINTERTEST.RES"   D:\PROJECTS\PRINTERTEST\TXPRINTERTEST\TXPRINTERTEST.RC
^D:\PROJECTS\SYTPRINTERTEST_RM\TXPRINTERTEST\TXPRINTERTEST.RC
/D NDEBUG /D _USING_V110_SDK71_ /D _UNICODE /D UNICODE /l"0x0804" /IRELEASE\ /nologo /fo"RELEASE\TXPRINTERTEST.RES"   D:\PROJECTS\SYTPRINTERTEST_RM\TXPRINTERTEST\TXPRINTERTEST.RC
^D:\PROJECTS\TPRINTERTEST_RM\TXPRINTERTEST\TXPRINTERTEST.RC
/D NDEBUG /D _USING_V110_SDK71_ /D _UNICODE /D UNICODE /l"0x0804" /IRELEASE\ /nologo /fo"RELEASE\TXPRINTERTEST.RES"   D:\PROJECTS\TPRINTERTEST_RM\TXPRINTERTEST\TXPRINTERTEST.RC
^D:\PROJECTS\PRINTERTEST_RM\TXPRINTERTEST\TXPRINTERTEST.RC
/D NDEBUG /D _USING_V110_SDK71_ /D _UNICODE /D UNICODE /l"0x0804" /IRELEASE\ /nologo /fo"RELEASE\TXPRINTERTEST.RES"   D:\PROJECTS\PRINTERTEST_RM\TXPRINTERTEST\TXPRINTERTEST.RC
